Designator	Footprint	Description	LT_ID	Comment	Center-X(mm)	Center-Y(mm)	Rotation

C5	CHIPC_0805_WAVE	Cer. Capacitor 0805, 10nF, 10%, X7R, 50V	5630001540	10nF	108.7	3.4	90
C7	CHIPC_0603_WAVE	Cer.capacitor 0603, 220nF, +80/-20%, Y5V, 25V	5630001550	220nF	117.5	6.3	90
C8	CHIPC_0603_WAVE	Cer. Capacitor 0603, 1uF, 10%, X7R, 16V	5630001560	1uF	113.6	16.1	270
C11	CHIPC_0805_WAVE	Cer. Capacitor 0805, 10nF, 10%, X7R, 50V	5630001540	10nF	125	18.8	90
C12	CHIPC_0805_WAVE	Cer. Capacitor 0805, 10nF, 10%, X7R, 50V	5630001540	10nF	127.5	18.8	90
C14	CHIPC_1206_WAVE	Cer. capacitor 100pF, 20%, NP0, 630Vdc, EMI suppr	5630004090	100pF	105.8	11	90
C15	CHIPC_1206_WAVE	Cer. capacitor 2.2nF, 20%, X7R, 630Vdc, EMI suppr	5630003400	2200pF	110.5	23.7	270
C16	CHIPC_0603_WAVE	Cer.capacitor 0603, 220nF, +80/-20%, Y5V, 25V	5630001550	220nF	158.9	18.3	270
C17	CHIPC_0603_WAVE	Cer.capacitor 0603, 220nF, +80/-20%, Y5V, 25V	5630001550	220nF	158.9	11.2	90
C20	CHIPC_1206_WAVE	Cer. capacitor 100pF, 20%, NP0, 630Vdc, EMI suppr	5630004090	100pF	207.1	10.1	90
C22	CHIPC_1206_WAVE	Cer. capacitor 2.2nF, 20%, X7R, 630Vdc, EMI suppr	5630003400	2200pF	179	23.8	90
DD1	SOIC-8_WAVE	SMPS PFC controller	5630001500	L6562ADTR	114	10	270
DD2	SOIC-8_WAVE	SMPS PFC controller	5630001500	L6562ADTR	163.9	14.7	90
FID1	FID_1mm	Fiducial mark		Fiducial	5	5	90
FID2	FID_1mm	Fiducial mark		Fiducial	244	23	90
FID3	FID_1mm	Fiducial mark		Fiducial	245	5	90
R1	CHIPR_1206_WAVE	Resistor 1206, 1.5MOhm, 5%	5630001570	1.5M	79.8	19	270
R2	CHIPR_1206_WAVE	Resistor 1206, 1.5MOhm, 5%	5630001570	1.5M	80.7	13.1	270
R3	CHIPR_0603_WAVE	Resistor 0603, 33kOhm, 5%	5630002720	33K	111.1	3.1	270
R4	CHIPR_1206_WAVE	Resistor 1206, 390kOhm, 5%	5630001610	390K	84	24.8	0
R5	CHIPR_1206_WAVE	Resistor 1206, 390kOhm, 5%	5630001610	390K	91	24.8	0
R6	CHIPR_1206_WAVE	Resistor 1206, 680kOhm, 5%	5630001620	680K	141.4	21.1	180
R7	CHIPR_1206_WAVE	Resistor 1206, 680kOhm, 5%	5630001620	680K	135.5	17.9	180
R8	CHIPR_1206_WAVE	Resistor 1206, 680kOhm, 5%	5630001620	680K	129.6	14.7	180
R9	CHIPR_1206_WAVE	Resistor 1206, 2.2Ohm, 5%	5630001640	2.2R	122.4	13.5	0
R10	CHIPR_0603_WAVE	Resistor 0603, 13kOhm, 5%	5630001630	13K	113	3.1	90
R11	CHIPR_0805_WAVE	Resistor 0805, 22Ohm, 5%	5630001660	22R	137.5	11.8	90
R12	CHIPR_0603_WAVE	Resistor 0603, 910Ohm, 5%	5630001670	910R	118.2	12.8	270
R13	CHIPR_0603_WAVE	Resistor 0603, 13kOhm, 5%	5630001630	13K	142.1	7.3	90
R14	CHIPR_0603_WAVE	Resistor 0603, 47kOhm, 5%	5630002510	47K	122.8	17	270
R15	CHIPR_0805_WAVE	Resistor 0805, 22Ohm, 5%	5630001660	22R	120.4	9.9	90
R16	CHIPR_0603_WAVE	Resistor 0603, 910Ohm, 5%	5630001670	910R	87.5	11.6	90
R17	CHIPR_0603_WAVE	Resistor 0603, 33kOhm, 5%	5630002720	33K	88.3	8	270
R18	CHIPR_1206_WAVE	Resistor 1206, 2.2Ohm, 5%	5630001640	2.2R	95.6	3.9	90
R19	CHIPR_1206_WAVE	Resistor 1206, 2.2Ohm, 5%	5630001640	2.2R	98.8	3.9	90
R20	CHIPR_1206_WAVE	Resistor 1206, 2.2Ohm, 5%	5630001640	2.2R	102	3.9	90
R21	CHIPR_1206_WAVE	Resistor 1206, 10Ohm, 5%	5630004080	10R	105.8	3.9	270
R22	CHIPR_1206_WAVE	Resistor 1206, 1Ohm, 5%	5630002810	1R	143.7	14	270
R23	CHIPR_0805_WAVE	Resistor 0805, 22Ohm, 5%	5630001660	22R	155.7	16.7	90
R24	CHIPR_0603_WAVE	Resistor 0603, 220kOhm, 5%	5630001690	220K	158.9	14.6	90
R26	CHIPR_0603_WAVE	Resistor 0603, 33kOhm, 5%		33K	156	12.7	90
R27	CHIPR_0603_WAVE	Resistor 0603, 220kOhm, 5%	5630001690	220K	161.3	7.7	90
R30	CHIPR_0603_WAVE	Resistor 0603, 47kOhm, 5%	5630002510	47K	167.7	18.4	270
R31	CHIPR_1206_WAVE	Resistor 1206, 1.5MOhm, 5%	5630001570	1.5M	178.4	13.7	90
R32	CHIPR_0603_WAVE	Resistor 0603, 910Ohm, 5%	5630001670	910R	178.4	8.6	270
R33	CHIPR_0805_WAVE	Resistor 0805, 22Ohm, 5%	5630001660	22R	168	14.8	270
R34	CHIPR_0603_WAVE	Resistor 0603, 910Ohm, 5%	5630001670	910R	186.1	10.4	270
R35	CHIPR_1206_WAVE	Resistor 1206, 1.5MOhm, 5%	5630001570	1.5M	183.3	17.8	90
R36	CHIPR_1206_WAVE	Resistor 1206, 3Ohm, 5%	5630001530	3R	185.4	4.1	90
R37	CHIPR_1206_WAVE	Resistor 1206, 3.3Ohm, 5%	5630004150	3R3	182.2	4.1	90
R38	CHIPR_0603_WAVE	Resistor 0603, 33kOhm, 5%	5630002720	33K	193.3	8.1	90
R40	CHIPR_1206_WAVE	Resistor 1206, 10Ohm, 5%	5630004080	10R	207.1	3.2	270
R43	CHIPR_0805_WAVE	Resistor 0805, 510Ohm, 5%	5630001100	510R	226.6	21	270
VD1	SMA_wave	Rectifier diode, 1A, 1000V	5630001820	S1M	69	12	270
VD2	SMA_wave	Rectifier diode, 1A, 1000V	5630001820	S1M	52.8	4.7	270
VD3	SMA_wave	Rectifier diode, 1A, 1000V	5630001820	S1M	69	22.3	90
VD4	SMA_wave	Rectifier diode, 1A, 1000V	5630001820	S1M	52.8	19.7	270
VD5	SOD80_WAVE	Switching diode, 200 mA, 100V	5630001800	PMLL4148L	134.6	11	270
VD6	SOD80_WAVE	Zener diode, 16V	5630001830	BZV55C16	140.4	13	270
VD7	SOD80_WAVE	Switching diode, 200 mA, 100V	5630001800	PMLL4148L	129.4	6.3	270
VD8	SOD80_WAVE	Switching diode, 200 mA, 100V	5630001800	PMLL4148L	126	6.3	90
VD9	SOD80_WAVE	Switching diode, 200 mA, 100V	5630001800	PMLL4148L	84.4	13.2	90
VD12	SOD80_WAVE	Switching diode, 200 mA, 100V	5630001800	PMLL4148L	183.3	11.5	90
VT1	SOT23_WAVE	Transistor bipolar, NPN, 100mA, 60V	5630001740	MMBTA05LT1G	138.6	7.2	180
VT2	DPAK_WAVE	Transistor MOSFET, N-channel, 4.6A, 0.6Ohm, 600V, 12nC	5630001520	IPD60R600P6	94.1	12.6	270
VT4	DPAK_WAVE	Transistor MOSFET, N-channel, 4.6A, 0.6Ohm, 600V, 12nC	5630001520	IPD60R600P6	199.4	13.4	270
